[
    {
        "Args": [
            "spark-submit",
            "--deploy-mode",
            "cluster",
            "--class",
            "edu.ub.il3.mbde.LeagueClassification",
            "s3://mur-lopez-m3-act2/spark-league-classification_2.11-1.0.0.jar",
            "s3://mur-lopez-m3-act2/"
        ],
        "Type": "CUSTOM_JAR",
        "ActionOnFailure": "TERMINATE_CLUSTER",
        "Jar": "command-runner.jar",
        "Properties": "",
        "Name": "Aplicación de Spark"
    }
]